/home/rodrigo/Workspace/demo-mv-app/src/main/java/cl/ufro/dci/controller/Buscador.java
/home/rodrigo/Workspace/demo-mv-app/src/main/java/cl/ufro/dci/model/ValorBolsa.java
/home/rodrigo/Workspace/demo-mv-app/src/main/java/cl/ufro/dci/helper/Pagina.java
/home/rodrigo/Workspace/demo-mv-app/src/main/java/cl/ufro/dci/App.java
